{
    "background": [25, 25, 27],
    "base-text": [180, 180, 180],
    "blue": [50, 120, 240],
    "dark-grey": [36, 36, 36],
    "grey": [50, 50, 50],
    "mid-grey": [65, 65, 65],
    "light-grey": [80, 80, 80],
    "light": [100, 100, 100],
    "light-yellow": [223, 182, 95],
    "yellow": [217, 158, 65]
}
